<svg xmlns="http://www.w3.org/2000/svg" xmlns:xlink="http://www.w3.org/1999/xlink" width="144" height="144" viewBox="0 0 144 144">
    <defs>
        <path id="a" d="M114.498 140c4.688 0 8.5-3.804 8.5-8.5v-119c0-4.696-3.812-8.5-8.5-8.5H59.25c-3.48 0-7.797 1.785-10.26 4.25L25.252 31.986C22.787 34.451 21 38.765 21 42.25v89.25c0 4.696 3.812 8.5 8.5 8.5h84.998zM29.5 131.5h85l-.002-119H59.25v21.25c0 4.696-3.814 8.5-8.5 8.5H29.5v89.25zm68-17h-51a4.256 4.256 0 0 0-4.25 4.25A4.242 4.242 0 0 0 46.5 123h51a4.243 4.243 0 0 0 4.25-4.25 4.257 4.257 0 0 0-4.25-4.25zm0-21.25h-51a4.256 4.256 0 0 0-4.25 4.25 4.242 4.242 0 0 0 4.25 4.25h51a4.243 4.243 0 0 0 4.25-4.25 4.257 4.257 0 0 0-4.25-4.25zm0-21.25h-51a4.256 4.256 0 0 0-4.25 4.25 4.242 4.242 0 0 0 4.25 4.25h51a4.243 4.243 0 0 0 4.25-4.25A4.257 4.257 0 0 0 97.5 72zm0-21.25h-51A4.256 4.256 0 0 0 42.25 55a4.242 4.242 0 0 0 4.25 4.25h51a4.243 4.243 0 0 0 4.25-4.25 4.257 4.257 0 0 0-4.25-4.25zM72 38h25.5a4.243 4.243 0 0 0 4.25-4.25 4.257 4.257 0 0 0-4.25-4.25H72a4.256 4.256 0 0 0-4.25 4.25A4.242 4.242 0 0 0 72 38zM50.75 18.514V33.75H35.51l15.24-15.236z"/>
    </defs>
    <use fill="#000" fill-opacity=".34" fill-rule="evenodd" xlink:href="#a"/>
</svg>
