<svg xmlns="http://www.w3.org/2000/svg" xmlns:xlink="http://www.w3.org/1999/xlink" width="144" height="144" viewBox="0 0 144 144">
    <defs>
        <path id="a" d="M72 140c18.165 0 35.248-7.072 48.088-19.912C132.928 107.248 140 90.165 140 72c0-18.165-7.072-35.248-19.912-48.088C107.248 11.072 90.165 4 72 4c-18.165 0-35.248 7.072-48.088 19.912C11.072 36.752 4 53.835 4 72c0 18.165 7.072 35.248 19.912 48.088C36.752 132.928 53.835 140 72 140zm43.29-24.71c-11.564 11.565-26.928 17.916-43.29 17.916-15.197 0-29.563-5.52-40.794-15.586l86.414-86.414C127.687 42.437 133.206 56.803 133.206 72c0 16.362-6.379 31.726-17.916 43.29zM28.71 28.71C40.274 17.173 55.638 10.794 72 10.794c15.225 0 29.563 5.52 40.794 15.586L26.38 112.794C16.313 101.563 10.794 87.225 10.794 72c0-16.362 6.379-31.726 17.916-43.29z"/>
    </defs>
    <use fill="#000" fill-opacity=".34" fill-rule="evenodd" xlink:href="#a"/>
</svg>
